…
## Examples

``` r
# Load zipcodeR into R
library(zipcodeR)
```

### Find all ZIP codes for a state

``` r
search_state('NJ')
#> # A tibble: 732 × 24
#>    zipcode zipcode…¹ major…² post_…³ common_c…⁴ county state   lat   lng timez…⁵
#>    <chr>   <chr>     <chr>   <chr>       <blob> <chr>  <chr> <dbl> <dbl> <chr>  
#>  1 07001   Standard  Avenel  Avenel… <raw 18 B> Middl… NJ     40.6 -74.3 Eastern
#>  2 07002   Standard  Bayonne Bayonn… <raw 19 B> Hudso… NJ     40.7 -74.1 Eastern
#>  3 07003   Standard  Bloomf… Bloomf… <raw 22 B> Essex… NJ     40.8 -74.2 Eastern
#>  4 07004   Standard  Fairfi… Fairfi… <raw 21 B> Essex… NJ     40.9 -74.3 Eastern
#>  5 07005   Standard  Boonton Boonto… <raw 36 B> Morri… NJ     40.9 -74.4 Eastern
#>  6 07006   Standard  Caldwe… Caldwe… <raw 39 B> Essex… NJ     40.8 -74.3 Eastern
#>  7 07007   PO Box    Caldwe… <NA>    <raw 30 B> Essex… NJ     NA    NA   <NA>   
#>  8 07008   Standard  Carter… Carter… <raw 20 B> Middl… NJ     40.6 -74.2 Eastern
#>  9 07009   Standard  Cedar … Cedar … <raw 23 B> Essex… NJ     40.9 -74.2 Eastern
#> 10 07010   Standard  Cliffs… Cliffs… <raw 32 B> Berge… NJ     40.8 -74.0 Eastern
#> # … with 722 more rows, 14 more variables: radius_in_miles <dbl>,
#> #   area_code_list <blob>, population <int>, population_density <dbl>,
#> #   land_area_in_sqmi <dbl>, water_area_in_sqmi <dbl>, housing_units <int>,
#> #   occupied_housing_units <int>, median_home_value <int>,
#> #   median_household_income <int>, bounds_west <dbl>, bounds_east <dbl>,
#> #   bounds_north <dbl>, bounds_south <dbl>, and abbreviated variable names
#> #   ¹​zipcode_type, ²​major_city, ³​post_office_city, ⁴​common_city_list, …
```
…
### Find all ZIP codes for a county

``` r
search_county('Ocean','NJ')
#> # A tibble: 32 × 24
#>    zipcode zipcode…¹ major…² post_…³ common_c…⁴ county state   lat   lng timez…⁵
#>    <chr>   <chr>     <chr>   <chr>       <blob> <chr>  <chr> <dbl> <dbl> <chr>  
#>  1 08005   Standard  Barneg… Barneg… <raw 20 B> Ocean… NJ     39.8 -74.3 Eastern
#>  2 08006   PO Box    Barneg… Barneg… <raw 33 B> Ocean… NJ     39.8 -74.1 Eastern
#>  3 08008   Standard  Beach … Beach … <raw 61 B> Ocean… NJ     39.6 -74.2 Eastern
#>  4 08050   Standard  Manaha… Manaha… <raw 47 B> Ocean… NJ     39.7 -74.3 Eastern
#>  5 08087   Standard  Tucker… Tucker… <raw 51 B> Ocean… NJ     39.6 -74.4 Eastern
#>  6 08092   Standard  West C… West C… <raw 22 B> Ocean… NJ     39.7 -74.3 Eastern
#>  7 08527   Standard  Jackson Jackso… <raw 19 B> Ocean… NJ     40.1 -74.4 Eastern
#>  8 08533   Standard  New Eg… New Eg… <raw 21 B> Ocean… NJ     40.0 -74.5 Eastern
#>  9 08701   Standard  Lakewo… Lakewo… <raw 20 B> Ocean… NJ     40.1 -74.2 Eastern
#> 10 08721   Standard  Bayvil… Bayvil… <raw 20 B> Ocean… NJ     39.9 -74.2 Eastern
#> # … with 22 more rows, 14 more variables: radius_in_miles <dbl>,
#> #   area_code_list <blob>, population <int>, population_density <dbl>,
#> #   land_area_in_sqmi <dbl>, water_area_in_sqmi <dbl>, housing_units <int>,
#> #   occupied_housing_units <int>, median_home_value <int>,
#> #   median_household_income <int>, bounds_west <dbl>, bounds_east <dbl>,
#> #   bounds_north <dbl>, bounds_south <dbl>, and abbreviated variable names
#> #   ¹​zipcode_type, ²​major_city, ³​post_office_city, ⁴​common_city_list, …
```
…
### Find all ZIP codes for a timezone

``` r
search_tz('Eastern')
#> # A tibble: 14,025 × 24
#>    zipcode zipcode…¹ major…² post_…³ common_c…⁴ county state   lat   lng timez…⁵
#>    <chr>   <chr>     <chr>   <chr>       <blob> <chr>  <chr> <dbl> <dbl> <chr>  
#>  1 06001   Standard  Avon    Avon, … <raw 16 B> Hartf… CT     41.8 -72.9 Eastern
#>  2 06002   Standard  Bloomf… Bloomf… <raw 22 B> Hartf… CT     41.8 -72.7 Eastern
#>  3 06010   Standard  Bristol Bristo… <raw 19 B> Hartf… CT     41.7 -72.9 Eastern
#>  4 06013   Standard  Burlin… Burlin… <raw 36 B> Hartf… CT     41.8 -73.0 Eastern
#>  5 06016   Standard  Broad … Broad … <raw 46 B> Hartf… CT     41.9 -72.6 Eastern
#>  6 06018   Standard  Canaan  Canaan… <raw 18 B> Litch… CT     42.0 -73.3 Eastern
#>  7 06019   Standard  Canton  Canton… <raw 34 B> Hartf… CT     41.9 -72.9 Eastern
#>  8 06020   Standard  Canton… Canton… <raw 25 B> Hartf… CT     41.8 -72.9 Eastern
#>  9 06021   Standard  Colebr… Colebr… <raw 21 B> Litch… CT     42.0 -73.1 Eastern
#> 10 06022   Standard  Collin… Collin… <raw 24 B> Hartf… CT     41.8 -72.9 Eastern
#> # … with 14,015 more rows, 14 more variables: radius_in_miles <dbl>,
#> #   area_code_list <blob>, population <int>, population_density <dbl>,
#> #   land_area_in_sqmi <dbl>, water_area_in_sqmi <dbl>, housing_units <int>,
#> #   occupied_housing_units <int>, median_home_value <int>,
#> #   median_household_income <int>, bounds_west <dbl>, bounds_east <dbl>,
#> #   bounds_north <dbl>, bounds_south <dbl>, and abbreviated variable names
#> #   ¹​zipcode_type, ²​major_city, ³​post_office_city, ⁴​common_city_list, …
```
…
