Returns all ZIP codes found within a given FIPS code — search_fips • zipcodeR
…
#> 721     40.54680     40.53373
#> 722           NA           NA
#> 723     40.50953     40.45883
#> 724     40.47794     40.39510
#> 725           NA           NA
#> 726     40.51446     40.48823
#> 727           NA           NA
#> 728           NA           NA
#> 729           NA           NA
#> 730           NA           NA
#> 731           NA           NA
#> 732           NA           NA
search_fips("34", "03")

#> # A tibble: 71 × 24
#>    zipcode zipcode_type major_city   post_office_city  common_city_list county  
#>    <chr>   <chr>        <chr>        <chr>                       <blob> <chr>   
#>  1 07010   Standard     Cliffside P… Cliffside Park, …       <raw 32 B> Bergen …
#>  2 07020   Standard     Edgewater    Edgewater, NJ           <raw 21 B> Bergen …
#>  3 07022   Standard     Fairview     Fairview, NJ            <raw 20 B> Bergen …
#>  4 07024   Standard     Fort Lee     Fort Lee, NJ            <raw 20 B> Bergen …
#>  5 07026   Standard     Garfield     Garfield, NJ            <raw 20 B> Bergen …
#>  6 07031   Standard     North Arlin… North Arlington,…       <raw 33 B> Bergen …
#>  7 07057   Standard     Wallington   Wallington, NJ          <raw 22 B> Bergen …
#>  8 07070   Standard     Rutherford   Rutherford, NJ          <raw 22 B> Bergen …
#>  9 07071   Standard     Lyndhurst    Lyndhurst, NJ           <raw 21 B> Bergen …
#> 10 07072   Standard     Carlstadt    Carlstadt, NJ           <raw 21 B> Bergen …
#> # … with 61 more rows, and 18 more variables: state <chr>, lat <dbl>,
#> #   lng <dbl>, timezone <chr>, radius_in_miles <dbl>, area_code_list <blob>,
#> #   population <int>, population_density <dbl>, land_area_in_sqmi <dbl>,
#> #   water_area_in_sqmi <dbl>, housing_units <int>,
#> #   occupied_housing_units <int>, median_home_value <int>,
#> #   median_household_income <int>, bounds_west <dbl>, bounds_east <dbl>,
#> #   bounds_north <dbl>, bounds_south <dbl>
search_fips("34", "3")

#> # A tibble: 71 × 24
#>    zipcode zipcode_type major_city   post_office_city  common_city_list county  
#>    <chr>   <chr>        <chr>        <chr>                       <blob> <chr>   
#>  1 07010   Standard     Cliffside P… Cliffside Park, …       <raw 32 B> Bergen …
#>  2 07020   Standard     Edgewater    Edgewater, NJ           <raw 21 B> Bergen …
#>  3 07022   Standard     Fairview     Fairview, NJ            <raw 20 B> Bergen …
#>  4 07024   Standard     Fort Lee     Fort Lee, NJ            <raw 20 B> Bergen …
#>  5 07026   Standard     Garfield     Garfield, NJ            <raw 20 B> Bergen …
#>  6 07031   Standard     North Arlin… North Arlington,…       <raw 33 B> Bergen …
#>  7 07057   Standard     Wallington   Wallington, NJ          <raw 22 B> Bergen …
#>  8 07070   Standard     Rutherford   Rutherford, NJ          <raw 22 B> Bergen …
#>  9 07071   Standard     Lyndhurst    Lyndhurst, NJ           <raw 21 B> Bergen …
#> 10 07072   Standard     Carlstadt    Carlstadt, NJ           <raw 21 B> Bergen …
#> # … with 61 more rows, and 18 more variables: state <chr>, lat <dbl>,
#> #   lng <dbl>, timezone <chr>, radius_in_miles <dbl>, area_code_list <blob>,
#> #   population <int>, population_density <dbl>, land_area_in_sqmi <dbl>,
#> #   water_area_in_sqmi <dbl>, housing_units <int>,
#> #   occupied_housing_units <int>, median_home_value <int>,
#> #   median_household_income <int>, bounds_west <dbl>, bounds_east <dbl>,
#> #   bounds_north <dbl>, bounds_south <dbl>
search_fips("36", "003")

#> # A tibble: 28 × 24
#>    zipcode zipcode_type major_city  post_office_city common_city_list county    
#>    <chr>   <chr>        <chr>       <chr>                      <blob> <chr>     
#>  1 14029   PO Box       Centerville NA                     <raw 23 B> Allegany …
#>  2 14707   PO Box       Allentown   Allentown, NY          <raw 21 B> Allegany …
#>  3 14708   Standard     Alma        Alma, NY               <raw 16 B> Allegany …
#>  4 14709   Standard     Angelica    Angelica, NY           <raw 20 B> Allegany …
#>  5 14711   Standard     Belfast     Belfast, NY            <raw 19 B> Allegany …
#>  6 14714   Standard     Black Creek Black Creek, NY        <raw 23 B> Allegany …
#>  7 14715   Standard     Bolivar     Bolivar, NY            <raw 19 B> Allegany …
#>  8 14717   Standard     Caneadea    Caneadea, NY           <raw 20 B> Allegany …
#>  9 14721   Standard     Ceres       Ceres, NY              <raw 17 B> Allegany …
#> 10 14727   Standard     Cuba        Cuba, NY               <raw 16 B> Allegany …
#> # … with 18 more rows, and 18 more variables: state <chr>, lat <dbl>,
#> #   lng <dbl>, timezone <chr>, radius_in_miles <dbl>, area_code_list <blob>,
#> #   population <int>, population_density <dbl>, land_area_in_sqmi <dbl>,
#> #   water_area_in_sqmi <dbl>, housing_units <int>,
#> #   occupied_housing_units <int>, median_home_value <int>,
#> #   median_household_income <int>, bounds_west <dbl>, bounds_east <dbl>,
#> #   bounds_north <dbl>, bounds_south <dbl>
…
