Introduction to zipcodeR • zipcodeR
…
The package ships with an offline database containing 24 columns of data for each ZIP code. You can either keep all 24 variables or filter to just one of these depending on what data you need.

The columns of data provided are: zipcode, zipcode_type, major_city, post_office_city, common_city_list, county, state, lat, lng, timezone, radius_in_miles, area_code_list, population, population_density, land_area_in_sqmi, water_area_in_sqmi, housing_units, occupied_housing_units, median_home_value, median_household_income, bounds_west, bounds_east, bounds_north, bounds_south

Searching for ZIP codes by state

Let’s begin by using zipcodeR to find all ZIP codes within a given state.

Getting all ZIP codes for a single state is simple, you only need to pass a two-digit abbreviation of a state’s name to get a tibble of all ZIP codes in that state. Let’s start by finding all of the ZIP codes in New York:

search_state('NY')

## 2208 ZIP codes found for state: "NY"

## # A tibble: 2,208 x 24
##    zipcode zipcode_type major_city post_office_city common_city_list county
##    <chr>   <chr>        <chr>      <chr>                 <list<raw>> <chr> 
##  1 00501   Unique       Holtsville <NA>                         [22] Suffo~
##  2 00544   Unique       Holtsville <NA>                         [22] Suffo~
##  3 06390   PO Box       Fishers I~ Fishers Island,~             [32] Suffo~
##  4 10001   Standard     New York   New York, NY                 [20] New Y~
##  5 10002   Standard     New York   New York, NY                 [34] New Y~
##  6 10003   Standard     New York   New York, NY                 [20] New Y~
##  7 10004   Standard     New York   New York, NY                 [37] New Y~
##  8 10005   Standard     New York   New York, NY                 [35] New Y~
##  9 10006   Standard     New York   New York, NY                 [31] New Y~
## 10 10007   Standard     New York   New York, NY                 [20] New Y~
## # ... with 2,198 more rows, and 18 more variables: state <chr>, lat <dbl>,
## #   lng <dbl>, timezone <chr>, radius_in_miles <dbl>,
## #   area_code_list <list<raw>>, population <int>, population_density <dbl>,
## #   land_area_in_sqmi <dbl>, water_area_in_sqmi <dbl>, housing_units <int>,
## #   occupied_housing_units <int>, median_home_value <int>,
## #   median_household_income <int>, bounds_west <dbl>, bounds_east <dbl>,
## #   bounds_north <dbl>, bounds_south <dbl>
…
nyzip <- search_state('NY')$zipcode

## 2208 ZIP codes found for state: "NY"

Searching multiple states at once

You can also search for ZIP codes in multiple states at once by passing a vector of state abbreviations to the search_states function like so:

states <- c('NY','NJ','CT')

search_state(states)

## 3378 ZIP codes found for states: "NY", "NJ", "CT"

## # A tibble: 3,378 x 24
##    zipcode zipcode_type major_city post_office_city common_city_list county
##    <chr>   <chr>        <chr>      <chr>                 <list<raw>> <chr> 
##  1 06001   Standard     Avon       Avon, CT                     [16] Hartf~
##  2 06002   Standard     Bloomfield Bloomfield, CT               [22] Hartf~
##  3 06006   Unique       Windsor    <NA>                         [19] Hartf~
##  4 06010   Standard     Bristol    Bristol, CT                  [19] Hartf~
##  5 06011   PO Box       Bristol    <NA>                         [19] Hartf~
##  6 06013   Standard     Burlington Burlington, CT               [36] Hartf~
##  7 06016   Standard     Broad Bro~ Broad Brook, CT              [46] Hartf~
##  8 06018   Standard     Canaan     Canaan, CT                   [18] Litch~
##  9 06019   Standard     Canton     Canton, CT                   [34] Hartf~
## 10 06020   Standard     Canton Ce~ Canton Center, ~             [25] Hartf~
## # ... with 3,368 more rows, and 18 more variables: state <chr>, lat <dbl>,
## #   lng <dbl>, timezone <chr>, radius_in_miles <dbl>,
## #   area_code_list <list<raw>>, population <int>, population_density <dbl>,
## #   land_area_in_sqmi <dbl>, water_area_in_sqmi <dbl>, housing_units <int>,
## #   occupied_housing_units <int>, median_home_value <int>,
## #   median_household_income <int>, bounds_west <dbl>, bounds_east <dbl>,
## #   bounds_north <dbl>, bounds_south <dbl>

This results in a tibble containing all ZIP codes for the states passed to the search_states() function.

Searching by county

It is also possible to search for ZIP codes located in a particular county within a state.

Let’s find all of the ZIP codes located within Ocean County, New Jersey:

search_county('Ocean','NJ')

## [1] "32 ZIP codes found for Ocean County , NJ"

## # A tibble: 32 x 24
##    zipcode zipcode_type major_city post_office_city common_city_list county
##    <chr>   <chr>        <chr>      <chr>                 <list<raw>> <chr> 
##  1 08005   Standard     Barnegat   Barnegat, NJ                 [20] Ocean~
##  2 08006   PO Box       Barnegat ~ Barnegat Light,~             [33] Ocean~
##  3 08008   Standard     Beach Hav~ Beach Haven, NJ              [61] Ocean~
##  4 08050   Standard     Manahawkin Manahawkin, NJ               [47] Ocean~
##  5 08087   Standard     Tuckerton  Tuckerton, NJ                [51] Ocean~
##  6 08092   Standard     West Creek West Creek, NJ               [22] Ocean~
##  7 08527   Standard     Jackson    Jackson, NJ                  [19] Ocean~
##  8 08533   Standard     New Egypt  New Egypt, NJ                [21] Ocean~
##  9 08701   Standard     Lakewood   Lakewood, NJ                 [20] Ocean~
## 10 08721   Standard     Bayville   Bayville, NJ                 [20] Ocean~
## # ... with 22 more rows, and 18 more variables: state <chr>, lat <dbl>,
## #   lng <dbl>, timezone <chr>, radius_in_miles <dbl>,
## #   area_code_list <list<raw>>, population <int>, population_density <dbl>,
## #   land_area_in_sqmi <dbl>, water_area_in_sqmi <dbl>, housing_units <int>,
## #   occupied_housing_units <int>, median_home_value <int>,
## #   median_household_income <int>, bounds_west <dbl>, bounds_east <dbl>,
## #   bounds_north <dbl>, bounds_south <dbl>
…
