Geographic functions in zipcodeR • zipcodeR
…
Searching for ZIP codes within a radius

Given a pair of latitude / longitude coordinates in WGS84 format you can search for all ZIP codes located within a provided radius in miles. This function will default to searching within 1 mile of your provided coordinates, but can be configured to search any arbitrary radius via the radius argument.

The below code searches for all ZIP codes within 20 miles of the

search_radius(39.9, -74.3, radius = 20)

## # A tibble: 41 × 2
##    zipcode distance
##    <chr>      <dbl>
##  1 08731       0   
##  2 08757       5.28
##  3 08721       5.31
##  4 08759       5.31
##  5 08722       5.70
##  6 08005       6.90
##  7 08758       7.22
##  8 08734       7.44
##  9 08741       7.72
## 10 08755       7.84
## # … with 31 more rows
…
