Introduction to zipcodeR • zipcodeR
…
Data

The package ships with an offline database containing 24 columns of data for each ZIP code. You can either keep all 24 variables or filter to just one of these depending on what data you need.

The columns of data provided are: zipcode, zipcode_type, major_city, post_office_city, common_city_list, county, state, lat, lng, timezone, radius_in_miles, area_code_list, population, population_density, land_area_in_sqmi, water_area_in_sqmi, housing_units, occupied_housing_units, median_home_value, median_household_income, bounds_west, bounds_east, bounds_north, bounds_south

Searching for ZIP codes by state

Let’s begin by using zipcodeR to find all ZIP codes within a given state.

Getting all ZIP codes for a single state is simple, you only need to pass a two-digit abbreviation of a state’s name to get a tibble of all ZIP codes in that state. Let’s start by finding all of the ZIP codes in New York:

search_state('NY')

## # A tibble: 2,208 × 24
##    zipcode zipcode…¹ major…² post_…³ common_c…⁴ county state   lat   lng timez…⁵
##    <chr>   <chr>     <chr>   <chr>       <blob> <chr>  <chr> <dbl> <dbl> <chr>  
##  1 00501   Unique    Holtsv… NA      <raw 22 B> Suffo… NY     NA    NA   NA     
##  2 00544   Unique    Holtsv… NA      <raw 22 B> Suffo… NY     NA    NA   NA     
##  3 06390   PO Box    Fisher… Fisher… <raw 32 B> Suffo… NY     41.3 -72.0 Eastern
##  4 10001   Standard  New Yo… New Yo… <raw 20 B> New Y… NY     40.8 -74.0 Eastern
##  5 10002   Standard  New Yo… New Yo… <raw 34 B> New Y… NY     40.7 -74.0 Eastern
##  6 10003   Standard  New Yo… New Yo… <raw 20 B> New Y… NY     40.7 -74.0 Eastern
##  7 10004   Standard  New Yo… New Yo… <raw 37 B> New Y… NY     40.7 -74.0 Eastern
##  8 10005   Standard  New Yo… New Yo… <raw 35 B> New Y… NY     40.7 -74.0 Eastern
##  9 10006   Standard  New Yo… New Yo… <raw 31 B> New Y… NY     40.7 -74.0 Eastern
## 10 10007   Standard  New Yo… New Yo… <raw 20 B> New Y… NY     40.7 -74.0 Eastern
## # … with 2,198 more rows, 14 more variables: radius_in_miles <dbl>,
## #   area_code_list <blob>, population <int>, population_density <dbl>,
## #   land_area_in_sqmi <dbl>, water_area_in_sqmi <dbl>, housing_units <int>,
## #   occupied_housing_units <int>, median_home_value <int>,
## #   median_household_income <int>, bounds_west <dbl>, bounds_east <dbl>,
## #   bounds_north <dbl>, bounds_south <dbl>, and abbreviated variable names
## #   ¹​zipcode_type, ²​major_city, ³​post_office_city, ⁴​common_city_list, …

What if you only wanted the actual ZIP codes and no other variables? You can use R’s dollar sign operator to select one column at a time from the output of zipcodeR’s search functions:

nyzip <- search_state('NY')$zipcode

Searching multiple states at once

You can also search for ZIP codes in multiple states at once by passing a vector of state abbreviations to the search_states function like so:

states <- c('NY','NJ','CT')

search_state(states)

## # A tibble: 3,378 × 24
##    zipcode zipcode…¹ major…² post_…³ common_c…⁴ county state   lat   lng timez…⁵
##    <chr>   <chr>     <chr>   <chr>       <blob> <chr>  <chr> <dbl> <dbl> <chr>  
##  1 06001   Standard  Avon    Avon, … <raw 16 B> Hartf… CT     41.8 -72.9 Eastern
##  2 06002   Standard  Bloomf… Bloomf… <raw 22 B> Hartf… CT     41.8 -72.7 Eastern
##  3 06006   Unique    Windsor NA      <raw 19 B> Hartf… CT     NA    NA   NA     
##  4 06010   Standard  Bristol Bristo… <raw 19 B> Hartf… CT     41.7 -72.9 Eastern
##  5 06011   PO Box    Bristol NA      <raw 19 B> Hartf… CT     NA    NA   NA     
##  6 06013   Standard  Burlin… Burlin… <raw 36 B> Hartf… CT     41.8 -73.0 Eastern
##  7 06016   Standard  Broad … Broad … <raw 46 B> Hartf… CT     41.9 -72.6 Eastern
##  8 06018   Standard  Canaan  Canaan… <raw 18 B> Litch… CT     42.0 -73.3 Eastern
##  9 06019   Standard  Canton  Canton… <raw 34 B> Hartf… CT     41.9 -72.9 Eastern
## 10 06020   Standard  Canton… Canton… <raw 25 B> Hartf… CT     41.8 -72.9 Eastern
## # … with 3,368 more rows, 14 more variables: radius_in_miles <dbl>,
## #   area_code_list <blob>, population <int>, population_density <dbl>,
## #   land_area_in_sqmi <dbl>, water_area_in_sqmi <dbl>, housing_units <int>,
## #   occupied_housing_units <int>, median_home_value <int>,
## #   median_household_income <int>, bounds_west <dbl>, bounds_east <dbl>,
## #   bounds_north <dbl>, bounds_south <dbl>, and abbreviated variable names
## #   ¹​zipcode_type, ²​major_city, ³​post_office_city, ⁴​common_city_list, …

This results in a tibble containing all ZIP codes for the states passed to the search_states() function.

Searching by county

It is also possible to search for ZIP codes located in a particular county within a state.

Let’s find all of the ZIP codes located within Ocean County, New Jersey:

search_county('Ocean','NJ')

## # A tibble: 32 × 24
##    zipcode zipcode…¹ major…² post_…³ common_c…⁴ county state   lat   lng timez…⁵
##    <chr>   <chr>     <chr>   <chr>       <blob> <chr>  <chr> <dbl> <dbl> <chr>  
##  1 08005   Standard  Barneg… Barneg… <raw 20 B> Ocean… NJ     39.8 -74.3 Eastern
##  2 08006   PO Box    Barneg… Barneg… <raw 33 B> Ocean… NJ     39.8 -74.1 Eastern
##  3 08008   Standard  Beach … Beach … <raw 61 B> Ocean… NJ     39.6 -74.2 Eastern
##  4 08050   Standard  Manaha… Manaha… <raw 47 B> Ocean… NJ     39.7 -74.3 Eastern
##  5 08087   Standard  Tucker… Tucker… <raw 51 B> Ocean… NJ     39.6 -74.4 Eastern
##  6 08092   Standard  West C… West C… <raw 22 B> Ocean… NJ     39.7 -74.3 Eastern
##  7 08527   Standard  Jackson Jackso… <raw 19 B> Ocean… NJ     40.1 -74.4 Eastern
##  8 08533   Standard  New Eg… New Eg… <raw 21 B> Ocean… NJ     40.0 -74.5 Eastern
##  9 08701   Standard  Lakewo… Lakewo… <raw 20 B> Ocean… NJ     40.1 -74.2 Eastern
## 10 08721   Standard  Bayvil… Bayvil… <raw 20 B> Ocean… NJ     39.9 -74.2 Eastern
## # … with 22 more rows, 14 more variables: radius_in_miles <dbl>,
## #   area_code_list <blob>, population <int>, population_density <dbl>,
## #   land_area_in_sqmi <dbl>, water_area_in_sqmi <dbl>, housing_units <int>,
## #   occupied_housing_units <int>, median_home_value <int>,
## #   median_household_income <int>, bounds_west <dbl>, bounds_east <dbl>,
## #   bounds_north <dbl>, bounds_south <dbl>, and abbreviated variable names
## #   ¹​zipcode_type, ²​major_city, ³​post_office_city, ⁴​common_city_list, …
…
